<?xml version="1.0" encoding="iso-8859-1"?>
<!-- Generator: Adobe Illustrator 16.0.0, SVG Export Plug-In . SVG Version: 6.00 Build 0)  -->
<!DOCTYPE svg PUBLIC "-//W3C//DTD SVG 1.1//EN" "http://www.w3.org/Graphics/SVG/1.1/DTD/svg11.dtd">
<svg xmlns="http://www.w3.org/2000/svg" xmlns:xlink="http://www.w3.org/1999/xlink" version="1.1" id="Capa_1" x="0px" y="0px" width="512px" height="512px" viewBox="0 0 248.322 248.322" style="enable-background:new 0 0 248.322 248.322;" xml:space="preserve">
<g>
	<path d="M124.161,248.322c68.572,0,124.161-55.589,124.161-124.161S192.734,0,124.161,0C55.589,0,0,55.589,0,124.161   S55.589,248.322,124.161,248.322z M52.743,70.444l71.418,71.418l71.418-71.418l28.284,28.284l-99.702,99.702L24.459,98.728   L52.743,70.444z" fill="#983a42"/>
</g>
<g>
</g>
<g>
</g>
<g>
</g>
<g>
</g>
<g>
</g>
<g>
</g>
<g>
</g>
<g>
</g>
<g>
</g>
<g>
</g>
<g>
</g>
<g>
</g>
<g>
</g>
<g>
</g>
<g>
</g>
</svg>
